<svg xmlns="http://www.w3.org/2000/svg" width="21" height="9" viewBox="0 0 21 9">
  <g id="Group_2905" data-name="Group 2905" transform="translate(6223.756 5309)">
    <g id="Group_2231" data-name="Group 2231" transform="translate(-6223.755 -5309)">
      <rect id="Rectangle_780" data-name="Rectangle 780" width="9" height="15.634" transform="translate(15.634 0) rotate(90)" fill="silver"/>
    </g>
    <g id="Group_2256" data-name="Group 2256" transform="translate(-6207.864 -5308.55)">
      <rect id="Rectangle_777" data-name="Rectangle 777" width="7.565" height="0.785" transform="translate(5.108 0.224) rotate(90)" fill="silver"/>
      <rect id="Rectangle_779" data-name="Rectangle 779" width="8.126" height="0.633" transform="translate(0.633 0) rotate(90)" fill="silver"/>
      <rect id="Rectangle_778" data-name="Rectangle 778" width="8.126" height="3.324" transform="translate(4.116 0) rotate(90)" fill="silver"/>
      <g id="Group_1712" data-name="Group 1712" transform="translate(0.815 0.002)">
        <g id="Path_1101" data-name="Path 1101" transform="matrix(0.996, 0.087, -0.087, 0.996, 0.767, 0)" fill="none">
          <path d="M0,0,.406.006l.105,8.1L.105,8.1Z" stroke="none"/>
          <path d="M 6.556510925292969e-07 -4.76837158203125e-06 L 0.4063406586647034 0.006195068359375 L 0.5115806460380554 8.107685089111328 L 0.1052406430244446 8.101494789123535 L 6.556510925292969e-07 -4.76837158203125e-06 Z" stroke="none" fill="#6b6b6b"/>
        </g>
        <g id="Path_1102" data-name="Path 1102" transform="matrix(0.996, 0.087, -0.087, 0.996, 1.329, 0)" fill="none">
          <path d="M0,0,.406.006l.105,8.1L.105,8.1Z" stroke="none"/>
          <path d="M 6.556510925292969e-07 -4.76837158203125e-06 L 0.4063406586647034 0.006195068359375 L 0.5115806460380554 8.107685089111328 L 0.1052406430244446 8.101494789123535 L 6.556510925292969e-07 -4.76837158203125e-06 Z" stroke="none" fill="#6b6b6b"/>
        </g>
        <g id="Path_1103" data-name="Path 1103" transform="matrix(0.996, 0.087, -0.087, 0.996, 1.891, 0)" fill="none">
          <path d="M0,0,.406.006l.105,8.1L.105,8.1Z" stroke="none"/>
          <path d="M 6.556510925292969e-07 -4.76837158203125e-06 L 0.4063406586647034 0.006195068359375 L 0.5115806460380554 8.107685089111328 L 0.1052406430244446 8.101494789123535 L 6.556510925292969e-07 -4.76837158203125e-06 Z" stroke="none" fill="#6b6b6b"/>
        </g>
        <g id="Path_1104" data-name="Path 1104" transform="matrix(0.996, 0.087, -0.087, 0.996, 2.454, 0)" fill="none">
          <path d="M0,0,.406.006l.105,8.1L.105,8.1Z" stroke="none"/>
          <path d="M 6.556510925292969e-07 -4.76837158203125e-06 L 0.4063406586647034 0.006195068359375 L 0.5115806460380554 8.107685089111328 L 0.1052406430244446 8.101494789123535 L 6.556510925292969e-07 -4.76837158203125e-06 Z" stroke="none" fill="#6b6b6b"/>
        </g>
      </g>
    </g>
  </g>
</svg>
