<svg xmlns="http://www.w3.org/2000/svg" viewBox="0 0 20 16.37">
  <defs>
    <style>
      .a {
        fill: #ddd;
      }
    </style>
  </defs>
  <title>add-trace-icon</title>
  <path class="a" d="M59.5,41.51H57.74a4.61,4.61,0,0,0-2.65.88,3.86,3.86,0,0,0-1.68,3,4.1,4.1,0,0,1-.32,1.82,3.09,3.09,0,0,1-.38-.86c-.42-1.26-.75-1.92-1.36-1.83-.22,0-.73.12-.73,2a14.65,14.65,0,0,1,0,2.73v.1c0-.19-.09-.38-.12-.56-.5-3.43-1.2-3.43-1.5-3.43s-1.18,0-2.47,5.34c-.1.31-.2.57-.27.78,0-1.09.08-2.76.14-3.9s.11-2.06.11-2.72c0-1-.09-1.87-.73-2s-1,.51-1.2.8a.5.5,0,0,0,0,.1l-.19.59a6.78,6.78,0,0,0-.6-2,1.86,1.86,0,0,0-1.59-.81H40.5a.5.5,0,0,0,0,1h1.65a.85.85,0,0,1,.72.31,5.66,5.66,0,0,1,.48,3.06c0,.26,0,.87.52.95.36.06.7.11,1.58-2.74a6.37,6.37,0,0,1,0,.79c0,.63-.05,1.62-.11,2.66-.26,4.87-.19,5.68.53,5.82h.14c.49,0,.84-.59,1.43-2.38A22.25,22.25,0,0,1,49,46.57a12.76,12.76,0,0,1,.56,2.4c.56,2.81,1,2.78,1.34,2.75.61-.05.72-.76.77-2.4a15.12,15.12,0,0,0,0-2.84c0-.08,0-.16,0-.25l.14.4c.14.44.55,1.76,1.47,1.62s1.18-1.58,1.18-2.86a2.86,2.86,0,0,1,1.26-2.19,3.36,3.36,0,0,1,2.07-.69H59.5a.5.5,0,0,0,0-1Z" transform="translate(-40 -41.5)"/>
  <path class="a" d="M59.5,53.87H57v-2.5a.5.5,0,0,0-1,0v2.5H53.5a.5.5,0,0,0,0,1H56v2.5a.5.5,0,1,0,1,0v-2.5h2.5a.5.5,0,0,0,0-1Z" transform="translate(-40 -41.5)"/>
</svg>
