<svg id="format_line_spacing-24px" xmlns="http://www.w3.org/2000/svg" width="22" height="22" viewBox="0 0 22 22">
  <path id="Контур_2339" data-name="Контур 2339" d="M0,0H22V22H0Z" fill="none"/>
  <path id="Контур_2340" data-name="Контур 2340" d="M5.561,6.588H7.817L4.659,3.5,1.5,6.588H3.756v8.824H1.5L4.659,18.5l3.159-3.088H5.561Zm3.61-1.765V6.588H20V4.824Zm0,12.353H20V15.412H9.171Zm0-5.294H20V10.118H9.171Z" transform="translate(0)" fill="#8d8d8d"/>
</svg>
