<?xml version="1.0" encoding="UTF-16"?>
<!DOCTYPE svg PUBLIC "-//W3C//DTD SVG 1.0//EN" "http://www.w3.org/TR/2001/REC-SVG-20010904/DTD/svg10.dtd">
<!-- Creator: CorelDRAW -->
<svg xmlns="http://www.w3.org/2000/svg" xml:space="preserve" width="171px" height="244px" version="1.0" style="shape-rendering:geometricPrecision; text-rendering:geometricPrecision; image-rendering:optimizeQuality; fill-rule:evenodd; clip-rule:evenodd"
viewBox="0 0 861.73 1231.09"
 xmlns:xlink="http://www.w3.org/1999/xlink"
 xmlns:xodm="http://www.corel.com/coreldraw/odm/2003">
 <defs>
  <style type="text/css">
   <![CDATA[
    .fil0 {fill:#C38D4C;fill-rule:nonzero}
   ]]>
  </style>
 </defs>
 <g id="Слой_x0020_1">
  <metadata id="CorelCorpID_0Corel-Layer"/>
  <g id="_105553781043232">
   <path id="Path_23" class="fil0" d="M430.85 0c0,0 -0.22,0 -0.27,0 -237.76,0 -430.58,192.81 -430.58,430.57 0,0.06 0,0.27 0,0.31 0,323.15 430.88,800.21 430.88,800.21 0,0 430.85,-477.06 430.85,-800.23 0,-0.02 0,-0.23 0,-0.29 0,-237.76 -192.82,-430.57 -430.58,-430.57 -0.06,0 -0.27,0 -0.3,0zm-307.75 430.86c0.03,-169.92 137.86,-307.75 307.78,-307.75 169.94,0 307.77,137.83 307.77,307.77 0,177.41 -177.41,442.59 -307.75,608.3 -128.09,-164.5 -307.8,-432.86 -307.8,-608.32z" data-name="Path 23"/>
   <circle id="Ellipse_9" class="fil0" cx="430.84" cy="420.02" r="126.72" data-name="Ellipse 9"/>
  </g>
 </g>
</svg>
