<svg id="search-black-18dp" xmlns="http://www.w3.org/2000/svg" width="22" height="22" viewBox="0 0 22 22">
  <path id="Контур_2344" data-name="Контур 2344" d="M0,0H22V22H0Z" fill="none"/>
  <path id="Контур_2345" data-name="Контур 2345" d="M14.071,12.742h-.7l-.248-.239a5.765,5.765,0,1,0-.62.62l.239.248v.7L17.17,18.49l1.32-1.32Zm-5.314,0a3.985,3.985,0,1,1,3.985-3.985A3.98,3.98,0,0,1,8.757,12.742Z" fill="#909090"/>
</svg>
