<?xml version="1.0" encoding="UTF-16"?>
<!DOCTYPE svg PUBLIC "-//W3C//DTD SVG 1.0//EN" "http://www.w3.org/TR/2001/REC-SVG-20010904/DTD/svg10.dtd">
<!-- Creator: CorelDRAW -->
<svg xmlns="http://www.w3.org/2000/svg" xml:space="preserve" width="282px" height="282px" version="1.0" style="shape-rendering:geometricPrecision; text-rendering:geometricPrecision; image-rendering:optimizeQuality; fill-rule:evenodd; clip-rule:evenodd"
viewBox="0 0 1056.19 1056.19"
 xmlns:xlink="http://www.w3.org/1999/xlink"
 xmlns:xodm="http://www.corel.com/coreldraw/odm/2003">
 <defs>
  <style type="text/css">
   <![CDATA[
    .fil0 {fill:#C38D4C;fill-rule:nonzero}
   ]]>
  </style>
 </defs>
 <g id="Слой_x0020_1">
  <metadata id="CorelCorpID_0Corel-Layer"/>
  <g id="_105553715900224">
   <path id="Path_1236" class="fil0" d="M568.21 95.17l0 -95.17 -62.2 0 0 93.31c-223.48,11.39 -402.04,190.43 -412.72,413.96l-93.29 -0.02 0 62.21 94.24 0c20.56,215.12 195.93,382.68 411.8,393.42l0 93.31 62.17 0 0 -94.24c207.99,-19.66 372.84,-184.51 392.51,-392.51l95.47 0.02 0 -62.21 -93.3 0c-10.7,-216.41 -179,-392.1 -394.71,-412.1l0.03 0.02zm220.21 442.88l0 0c-0.08,10.38 -0.85,20.77 -2.2,31.07l111.97 0.03c-19.02,173.74 -156.25,311.07 -329.99,330.25l0 -111.96c-10.28,1.41 -20.71,2.14 -31.1,2.14 -10.37,0 -20.79,-0.73 -31.08,-2.13l0 113.21c-181.52,-10.53 -329.15,-150.49 -349.28,-331.2l131.25 0c-1.37,-10.31 -2.1,-20.74 -2.1,-31.13 0,-10.36 0.73,-20.79 2.13,-31.08l-132.52 0c10.99,-188.8 161.73,-339.66 350.54,-350.83l-0.03 132.82c10.28,-1.35 20.76,-2.13 31.1,-2.19l0 0.01c10.38,0.05 20.82,0.83 31.1,2.18l0 -131.56c180.92,20.01 321.17,167.82 331.56,349.57l-113.54 0c1.33,10.18 2.09,20.54 2.19,30.79l0 0.01z" data-name="Path 1236"/>
   <path id="Path_1237" class="fil0" d="M568.21 787.48c113.7,-14.41 203.3,-104.02 217.69,-217.73l-217.69 0.03 0 217.7z" data-name="Path 1237"/>
   <path id="Path_1238" class="fil0" d="M287.99 569.46c14.41,113.68 104.02,203.29 217.72,217.68l0 -217.71 -217.72 0.03z" data-name="Path 1238"/>
   <path id="Path_1239" class="fil0" d="M568.21 289.24l0 217.71 217.71 0c-14.29,-113.74 -103.98,-203.43 -217.72,-217.71l0.01 0z" data-name="Path 1239"/>
   <path id="Path_1240" class="fil0" d="M506.01 289.24c-113.7,14.4 -203.3,104.01 -217.69,217.71l217.69 0 0 -217.71z" data-name="Path 1240"/>
  </g>
 </g>
</svg>
