<svg xmlns="http://www.w3.org/2000/svg" viewBox="0 0 20 20">
  <defs>
    <style>
      .a {
        fill: #ddd;
      }
    </style>
  </defs>
  <title>add-marker-icon</title>
  <path class="a" d="M60,55.84h-2.5v-2.5a.5.5,0,0,0-1,0v2.5H54a.5.5,0,0,0,0,1h2.5v2.5a.5.5,0,0,0,1,0v-2.5H60a.5.5,0,0,0,0-1Z" transform="translate(-40.46 -39.84)"/>
  <path class="a" d="M46.64,39.84a6.12,6.12,0,0,0-2.58,11.7l2.09,7.81a.5.5,0,0,0,1,0l2.1-7.81h0a6.12,6.12,0,0,0-2.61-11.68Zm4.47,8.69a5.18,5.18,0,0,1-2.7,2.25l-.31,1.14h0l0,.09-1.45,5.28-1.44-5.35-.3-1.14a5.14,5.14,0,1,1,6.22-2.26Z" transform="translate(-40.46 -39.84)"/>
  <path class="a" d="M46.63,42.94a3,3,0,1,0,3,3A3,3,0,0,0,46.63,42.94Zm0,5.07a2,2,0,1,1,2-2A2,2,0,0,1,46.63,48Z" transform="translate(-40.46 -39.84)"/>
</svg>
