<svg width="48" height="48" viewBox="0 0 48 48" fill="none" xmlns="http://www.w3.org/2000/svg">
<path d="M7.61128 7H40.3752L23.8401 39.7639L15.812 23.5561L7.61128 7Z" stroke="black" stroke-width="2"/>
<path d="M25.5147 36.0155L23.8038 39.6906L15.812 23.5561L7.61128 7H11.007L25.5147 36.0155Z" fill="black" stroke="black" stroke-width="2"/>
</svg>
