<svg id="Add" xmlns="http://www.w3.org/2000/svg" width="24" height="24" viewBox="0 0 24 24">
  <path id="Контур_2403" data-name="Контур 2403" d="M0,0H24V24H0Z" fill="none"/>
  <path id="Контур_2404" data-name="Контур 2404" d="M19,13H13v6H11V13H5V11h6V5h2v6h6Z" fill="#fbf7f0"/>
</svg>
