<svg xmlns="http://www.w3.org/2000/svg" width="24" height="24" viewBox="0 0 24 24">
  <g id="Сгруппировать_4786" data-name="Сгруппировать 4786" transform="translate(-738 -645)">
    <g id="dashboard_customize_black_24dp" transform="translate(738 645)">
      <g id="Сгруппировать_4783" data-name="Сгруппировать 4783">
        <path id="Контур_46" data-name="Контур 46" d="M0,0H24V24H0Z" fill="none"/>
      </g>
      <g id="Сгруппировать_4785" data-name="Сгруппировать 4785" transform="translate(0 2)">
        <g id="Сгруппировать_4784" data-name="Сгруппировать 4784">
          <path id="Контур_47" data-name="Контур 47" d="M3,9H9V3H3ZM4.5,4.5h3v3h-3Z" fill="#fff"/>
          <path id="Контур_48" data-name="Контур 48" d="M13,3V9h6V3Zm4.5,4.5h-3v-3h3Z" transform="translate(-2)" fill="#fff"/>
          <path id="Контур_49" data-name="Контур 49" d="M3,19H9V13H3Zm1.5-4.5h3v3h-3Z" transform="translate(0 -2)" fill="#fff"/>
          <path id="Контур_50" data-name="Контур 50" d="M3,19H9V13H3Zm1.5-4.5h3v3h-3Z" transform="translate(8 -2)" fill="#fff"/>
        </g>
      </g>
    </g>
  </g>
</svg>
