<svg xmlns="http://www.w3.org/2000/svg" width="24" height="24" viewBox="0 0 24 24">
  <g id="Analyze" transform="translate(-332 -412)">
    <g id="ANALYZE-2" data-name="ANALYZE" transform="translate(-760 -32)">
      <g id="Group_522" data-name="Group 522" transform="translate(1098 446)">
        <path id="Path_189" data-name="Path 189" d="M306.13-1279.779c-.06.033-.063.036-.333.514-.115.207-.211.377-.215.38a.935.935,0,0,1-.127-.069c-.11-.064-.132-.072-.193-.066a.311.311,0,0,0-.1.033c-.023.014-.262.422-.589,1-5.471,9.651-5.151,9.08-5.151,9.158,0,.1.037.144.216.252.079.05.158.1.174.1s-.044.128-.262.511c-.346.61-.335.585-.335.659,0,.122.018.136.728.554.571.336.667.387.722.387.122,0,.14-.025.462-.592.163-.287.3-.53.31-.538a.446.446,0,0,1,.181.08,1.45,1.45,0,0,0,.207.1.207.207,0,0,0,.192-.08c.023-.028.548-.941,1.162-2.031s1.128-1.979,1.135-1.98a1.831,1.831,0,0,1,.2.144,6.65,6.65,0,0,1,.821.823,5.077,5.077,0,0,1,1.073,2.9,5.087,5.087,0,0,1-1.042,3.36,6.286,6.286,0,0,1-.8.831,4.943,4.943,0,0,1-2.178,1.023,13.664,13.664,0,0,1-2.861.094,19.469,19.469,0,0,0-2.351.037c-.092.061-.089.02-.084,1.19l0,1.069.039.042a.369.369,0,0,0,.079.064c.036.018.905.022,5.951.022,5.87,0,5.91,0,5.961-.031a.282.282,0,0,0,.079-.08c.029-.051.031-.08.031-1.1a6.19,6.19,0,0,0-.024-1.1c-.054-.112.021-.1-1.23-.114l-1.125-.008.148-.172a7.469,7.469,0,0,0,1.694-3.618,6.406,6.406,0,0,0,.1-1.25,6.281,6.281,0,0,0-.069-1.079,7.446,7.446,0,0,0-2.62-4.712c-.158-.129-.465-.362-.567-.43l-.036-.025,1.1-1.949c.609-1.074,1.11-1.97,1.115-2,.021-.1-.047-.2-.2-.281a.278.278,0,0,1-.072-.049c0-.006.107-.2.237-.434.259-.459.271-.5.208-.6a6,6,0,0,0-.808-.506C306.25-1279.824,306.235-1279.832,306.13-1279.779Z" transform="translate(-296.244 1279.801)" fill="#fff"/>
        <path id="Path_191" data-name="Path 191" d="M259.121-490.353a.361.361,0,0,0-.121.069c-.05.054-.706,1.19-.734,1.274a.278.278,0,0,0,.052.265c.026.032,1.507.9,3.427,2.013l2.355,1.339h.123c.105,0,.131-.009.187-.062a14.784,14.784,0,0,0,.756-1.3.275.275,0,0,0-.093-.3c-.058-.043-.5-.275-4.921-2.831-.413-.239-.773-.446-.8-.456A.273.273,0,0,0,259.121-490.353Z" transform="translate(-258.252 501.522)" fill="#fff"/>
      </g>
    </g>
    <rect id="Прямоугольник_1718" data-name="Прямоугольник 1718" width="24" height="24" transform="translate(332 412)" fill="none"/>
  </g>
</svg>
