<svg xmlns="http://www.w3.org/2000/svg" width="24" height="24" viewBox="0 0 24 24">
  <g id="Average" transform="translate(-789 -516)">
    <rect id="Прямоугольник_1737" data-name="Прямоугольник 1737" width="24" height="24" transform="translate(789 516)" fill="none"/>
    <path id="Cosine-595b40b75ba036ed117d9375" d="M172.49,147.995v-2.4c.441-.02.758-.738,1.016-1.94s.462-2.878.68-4.836a43.594,43.594,0,0,1,.863-5.653c.407-1.554.995-2.572,1.92-2.42s1.506,1.307,1.917,2.869a42.514,42.514,0,0,1,.866,5.306,38.928,38.928,0,0,0,.677,4.284c.257,1.018.578,1.568,1.022,1.483s.757-.74,1.016-1.789a41.354,41.354,0,0,0,.68-4.093c.221-1.643,1.056-4.041,2.747-4.007s2.311,2.4,2.822,3.608a5.423,5.423,0,0,0,1.486,2.463c-.073.59-.131.919-.184,1.418a7.014,7.014,0,0,1-2.388-3.457c-.584-1.457-.745-2.581-1.736-2.567s-1.445,1.316-1.66,2.877a36.219,36.219,0,0,1-.866,4.78c-.412,1.44-1,2.553-1.917,2.793-.925.223-1.515-.676-1.92-2.087a36.543,36.543,0,0,1-.863-5.226c-.218-1.826-.424-3.4-.68-4.526s-.575-1.833-1.019-1.889-.762.577-1.019,1.7a46.845,46.845,0,0,0-.678,4.681,47.638,47.638,0,0,1-.866,5.716C174,146.739,173.412,147.923,172.49,147.995Z" transform="translate(619.855 388.634)" fill="#fff"/>
    <path id="Plot-595b40b75ba036ed117d5a7b" d="M0,19.981V0H.594V9.511H2.485l-.178.951H.594v9.519H0ZM4.667,10.47l.111-.951h2.2l.149.951Zm4.482,0L9,9.511h2.686l-.124.959Z" transform="translate(791 518)" fill="#fff"/>
    <path id="Контур_2418" data-name="Контур 2418" d="M1733.173,907.22h2.449l.395.969-2.957-.01Z" transform="translate(-928.552 -379.71)" fill="#fff" fill-rule="evenodd"/>
    <path id="Контур_2419" data-name="Контур 2419" d="M2314.849,907.22h2.085v.959h-1.671Z" transform="translate(-1505.637 -379.71)" fill="#fff" fill-rule="evenodd"/>
    <rect id="Прямоугольник_1738" data-name="Прямоугольник 1738" width="1" height="20" transform="translate(791 518)" fill="#fff"/>
  </g>
</svg>
