<svg xmlns="http://www.w3.org/2000/svg" width="26.238" height="29" viewBox="0 0 26.238 29">
  <path id="calibration_read-icon" data-name="calibration read-icon" d="M16.1,27.153,5.361,18.439,3,20.355,16.119,31,29.238,20.355l-2.376-1.931L16.1,27.153Zm.015-3.863,10.728-8.714,2.391-1.931L16.119,2,3,12.645l2.376,1.931Z" transform="translate(-3 -2)" fill="#b87333"/>
</svg>
