<svg id="Keyboard" xmlns="http://www.w3.org/2000/svg" width="24" height="24" viewBox="0 0 24 24">
  <path id="Контур_2401" data-name="Контур 2401" d="M0,0H24V24H0ZM0,0H24V24H0Z" fill="none"/>
  <path id="Контур_2402" data-name="Контур 2402" d="M22,5H2.01L2,19H22ZM11,8h2v2H11Zm0,3h2v2H11ZM8,8h2v2H8Zm0,3h2v2H8ZM7,13H5V11H7Zm0-3H5V8H7Zm9,7H8V15h8Zm0-4H14V11h2Zm0-3H14V8h2Zm3,3H17V11h2Zm0-3H17V8h2Z" fill="#fff"/>
</svg>
