<svg xmlns="http://www.w3.org/2000/svg" width="34" height="29" viewBox="0 0 34 29">
  <path id="Path_2539" data-name="Path 2539" d="M28.1,22.154H10.7V-1.385H28.1M28.1-4H10.7A2.777,2.777,0,0,0,7.8-1.385V22.154a2.777,2.777,0,0,0,2.9,2.615H28.1A2.777,2.777,0,0,0,31,22.154V-1.385A2.777,2.777,0,0,0,28.1-4ZM2,1.231V27.385A2.777,2.777,0,0,0,4.9,30H25.2V27.385H4.9V1.231Z" transform="translate(30 -2) rotate(90)" fill="#b87333"/>
</svg>
