<svg id="Pause" xmlns="http://www.w3.org/2000/svg" width="24" height="24" viewBox="0 0 24 24">
  <path id="Контур_2397" data-name="Контур 2397" d="M0,0H24V24H0Z" fill="none"/>
  <path id="Контур_2398" data-name="Контур 2398" d="M6,19h4V5H6ZM14,5V19h4V5Z" fill="#fbf7f0"/>
</svg>
