<svg xmlns="http://www.w3.org/2000/svg" viewBox="0 0 9.5 12">
  <defs>
    <style>
      .a {
        fill: #ddd;
      }
    </style>
  </defs>
  <title>continuous-b-icon</title>
  <path class="a" d="M131.77,70.58l-8.5-5.5a.5.5,0,0,0-.77.42v11a.5.5,0,0,0,.77.42l8.5-5.5a.5.5,0,0,0,0-.84Zm-8.27,5V66.42L130.58,71Z" transform="translate(-122.5 -65)"/>
</svg>
