<svg xmlns="http://www.w3.org/2000/svg" width="17" height="17" viewBox="0 0 17 17">
  <path id="Path_2190" data-name="Path 2190" d="M7.429,15.929H5V22h6.071V19.571H7.429ZM5,11.071H7.429V7.429h3.643V5H5Zm14.571,8.5H15.929V22H22V15.929H19.571ZM15.929,5V7.429h3.643v3.643H22V5Z" transform="translate(-5 -5)" fill="silver"/>
</svg>
