<svg id="Zoom_out" xmlns="http://www.w3.org/2000/svg" width="24" height="24" viewBox="0 0 24 24">
  <path id="Контур_2429" data-name="Контур 2429" d="M0,0H24V24H0Z" fill="none"/>
  <path id="Контур_2430" data-name="Контур 2430" d="M15,3l2.3,2.3L14.41,8.17l1.42,1.42L18.7,6.7,21,9V3ZM3,9,5.3,6.7,8.17,9.59,9.59,8.17,6.7,5.3,9,3H3ZM9,21,6.7,18.7l2.89-2.87L8.17,14.41,5.3,17.3,3,15v6Zm12-6-2.3,2.3-2.87-2.89-1.42,1.42L17.3,18.7,15,21h6Z" fill="#fff"/>
</svg>
