<svg xmlns="http://www.w3.org/2000/svg" xmlns:xlink="http://www.w3.org/1999/xlink" width="34" height="34" viewBox="0 0 34 34">
  <defs>
    <filter id="Led_Copper" x="0" y="0" width="34" height="34" filterUnits="userSpaceOnUse">
      <feOffset dy="3" input="SourceAlpha"/>
      <feGaussianBlur stdDeviation="3" result="blur"/>
      <feFlood flood-opacity="0.161"/>
      <feComposite operator="in" in2="blur"/>
      <feComposite in="SourceGraphic"/>
    </filter>
  </defs>
  <g id="Led_Copper-2" data-name="Led Copper" transform="translate(-138 -771)">
    <g transform="matrix(1, 0, 0, 1, 138, 771)" filter="url(#Led_Copper)">
      <circle id="Led_Copper-3" data-name="Led Copper" cx="8" cy="8" r="8" transform="translate(9 6)" fill="#db9049"/>
    </g>
    <rect id="Прямоугольник_2183" data-name="Прямоугольник 2183" width="24" height="24" transform="translate(143 773)" fill="none"/>
  </g>
</svg>
