<svg xmlns="http://www.w3.org/2000/svg" xmlns:xlink="http://www.w3.org/1999/xlink" width="34" height="34" viewBox="0 0 34 34">
  <defs>
    <linearGradient id="linear-gradient" x1="0.5" x2="0.5" y2="1" gradientUnits="objectBoundingBox">
      <stop offset="0" stop-color="#dedede"/>
      <stop offset="1" stop-color="#909090"/>
    </linearGradient>
    <filter id="Led_Light_Grey" x="0" y="0" width="34" height="34" filterUnits="userSpaceOnUse">
      <feOffset dy="3" input="SourceAlpha"/>
      <feGaussianBlur stdDeviation="3" result="blur"/>
      <feFlood flood-opacity="0.161"/>
      <feComposite operator="in" in2="blur"/>
      <feComposite in="SourceGraphic"/>
    </filter>
  </defs>
  <g id="Led_Light_Grey-2" data-name="Led Light Grey" transform="translate(-244 -748)">
    <rect id="Прямоугольник_2184" data-name="Прямоугольник 2184" width="24" height="24" transform="translate(249 750)" fill="none"/>
    <g transform="matrix(1, 0, 0, 1, 244, 748)" filter="url(#Led_Light_Grey)">
      <circle id="Led_Light_Grey-3" data-name="Led Light Grey" cx="8" cy="8" r="8" transform="translate(9 9)" fill="url(#linear-gradient)"/>
    </g>
  </g>
</svg>
