<svg xmlns="http://www.w3.org/2000/svg" width="24" height="24" viewBox="0 0 24 24">
  <g id="Сгруппировать_4966" data-name="Сгруппировать 4966" transform="translate(-763 -414)">
    <rect id="Прямоугольник_1943" data-name="Прямоугольник 1943" width="24" height="24" transform="translate(763 414)" fill="none"/>
    <path id="Объединение_20" data-name="Объединение 20" d="M3-2185H3v-20H23v20Zm19-1v-8H16.75v8Zm-6.25,0v-8h-5.5v8ZM4-2186H9.25v-8H4Zm18-9v-9H13.5v9Zm-18,0h8.5v-9H4Z" transform="translate(762 2621)" fill="#f53434"/>
  </g>
</svg>
