<svg xmlns="http://www.w3.org/2000/svg" width="24" height="24" viewBox="0 0 24 24">
  <g id="Сгруппировать_4961" data-name="Сгруппировать 4961" transform="translate(-647 -443)">
    <rect id="Прямоугольник_1947" data-name="Прямоугольник 1947" width="24" height="24" transform="translate(647 443)" fill="none"/>
    <path id="Объединение_22" data-name="Объединение 22" d="M-7-2192h0v-20H13v20Zm19-1v-5.25H6.75v5.25Zm-6.25,0v-5.25H.25v5.25ZM-6-2193H-.75v-5.25H-6Zm18-6.25v-5.5H6.75v5.5Zm-6.25,0v-5.5H.25v5.5Zm-11.75,0H-.75v-5.5H-6Zm18-6.5V-2211H6.75v5.25Zm-6.25,0V-2211H.25v5.25Zm-11.75,0H-.75V-2211H-6Z" transform="translate(656 2657)" fill="#f53434"/>
  </g>
</svg>
