<svg xmlns="http://www.w3.org/2000/svg" width="13" height="13" viewBox="0 0 13 13">
  <path id="Path_60" data-name="Path 60" d="M14.556,4.444V14.556H4.444V4.444H14.556m0-1.444H4.444A1.449,1.449,0,0,0,3,4.444V14.556A1.449,1.449,0,0,0,4.444,16H14.556A1.449,1.449,0,0,0,16,14.556V4.444A1.449,1.449,0,0,0,14.556,3Z" transform="translate(-3 -3)" fill="rgba(255,255,255,0.5)"/>
</svg>
