<svg xmlns="http://www.w3.org/2000/svg" width="20.995" height="34" viewBox="0 0 20.995 34">
  <g id="arrow2" transform="translate(1135.995 80) rotate(180)">
    <path id="Path_212" data-name="Path 212" d="M28.995,9.995,25,6,8,23,25,40l3.995-3.995L16.018,23Z" transform="translate(1107 40)" fill="#515151"/>
  </g>
</svg>
