<svg xmlns="http://www.w3.org/2000/svg" width="10" height="5" viewBox="0 0 10 5">
  <g id="baseline-arrow_drop_down-24pxx" transform="translate(-7 -10)">
    <path id="Path_1213" data-name="Path 1213" d="M7,10l5,5,5-5Z" fill="#fff"/>
  </g>
</svg>
