<svg id="Arrow_left" xmlns="http://www.w3.org/2000/svg" width="24" height="24" viewBox="0 0 24 24">
  <path id="Контур_2391" data-name="Контур 2391" d="M24,0V24H0V0Z" fill="none" opacity="0.87"/>
  <path id="Контур_2392" data-name="Контур 2392" d="M14,7,9,12l5,5Z" fill="#fff"/>
</svg>
