<svg xmlns="http://www.w3.org/2000/svg" width="9.121" height="14.121" viewBox="0 0 9.121 14.121">
  <g id="arrow-left" transform="translate(1133.061 160.061) rotate(180)">
    <line id="Line_94" data-name="Line 94" x2="7" y2="7" transform="translate(1125 147)" fill="none" stroke="#fff" stroke-width="3"/>
    <line id="Line_95" data-name="Line 95" y1="7" x2="7" transform="translate(1125 152)" fill="none" stroke="#fff" stroke-width="3"/>
  </g>
</svg>
