<svg xmlns="http://www.w3.org/2000/svg" width="471.5" height="250.833" viewBox="0 0 471.5 250.833">
  <g id="Group_1915" data-name="Group 1915" transform="translate(-486 -312.167)">
    <line id="Line_44" data-name="Line 44" x1="446" transform="translate(500.5 537.5)" fill="none" stroke="#cd7f32" stroke-width="1.5"/>
    <g id="Group_1914" data-name="Group 1914">
      <path id="Path_391" data-name="Path 391" d="M0,0H448.711" transform="translate(502.874 555.5)" fill="none" stroke="#909090" stroke-width="1" stroke-dasharray="10 5"/>
      <path id="Back-595b40b65ba036ed117d0e2e" d="M10.053,8.5,5.162,3.023a.668.668,0,0,1,0-.879l.875-.96a.536.536,0,0,1,.807,0l6.224,6.874a.668.668,0,0,1,0,.884L6.849,15.817a.535.535,0,0,1-.807,0l-.875-.96a.669.669,0,0,1,0-.879Z" transform="translate(939.26 546.999)" fill="#909090"/>
      <path id="Back-595b40b65ba036ed117d0e2e-2" data-name="Back-595b40b65ba036ed117d0e2e" d="M8.187,8.5l4.89-5.478a.668.668,0,0,0,0-.879l-.875-.96a.536.536,0,0,0-.807,0L5.167,8.059a.668.668,0,0,0,0,.884l6.224,6.874a.535.535,0,0,0,.807,0l.875-.96a.669.669,0,0,0,0-.879Z" transform="translate(495.5 546.999)" fill="#909090"/>
      <circle id="Ellipse_11" data-name="Ellipse 11" cx="5.5" cy="5.5" r="5.5" transform="translate(946.5 316)" fill="#cd7f32"/>
      <circle id="Ellipse_15" data-name="Ellipse 15" cx="5.5" cy="5.5" r="5.5" transform="translate(946.5 532)" fill="#cd7f32"/>
      <line id="Line_52" data-name="Line 52" x1="172" transform="translate(500.5 321.5)" fill="none" stroke="#cd7f32" stroke-width="1.5"/>
      <line id="Line_54" data-name="Line 54" x1="168" transform="translate(778.5 321.5)" fill="none" stroke="#cd7f32" stroke-width="1.5"/>
      <path id="Resistor_symbol_America" d="M10,18.911H36.5L40.917,10,49.75,27.823,58.583,10l8.833,17.823L76.25,10l8.833,17.823L89.5,18.911H116" transform="translate(662.5 302.5)" fill="none" stroke="#cd7f32" stroke-linejoin="bevel" stroke-width="1.5"/>
      <line id="Line_41" data-name="Line 41" y2="104" transform="translate(501 433.5)" fill="none" stroke="#cd7f32" stroke-linecap="square" stroke-width="1.5"/>
      <path id="Path_211" data-name="Path 211" d="M0,0H30" transform="translate(486 425.5)" fill="none" stroke="#cd7f32" stroke-width="1.5"/>
      <line id="Line_40" data-name="Line 40" x2="30" transform="translate(486 433.5)" fill="none" stroke="#cd7f32" stroke-width="1.5"/>
      <line id="Line_51" data-name="Line 51" y2="104" transform="translate(501 321.5)" fill="none" stroke="#cd7f32" stroke-linecap="square" stroke-width="1.5"/>
    </g>
  </g>
</svg>
