<svg xmlns="http://www.w3.org/2000/svg" width="467.357" height="251.008" viewBox="0 0 467.357 251.008">
  <g id="loadCoax" transform="translate(0.007 -0.005)">
    <path id="Path_391" data-name="Path 391" d="M363.13,358.38H811.84" transform="translate(-350.41 -114.82)" fill="none" stroke="#939393" stroke-miterlimit="10" stroke-width="1" stroke-dasharray="10 5"/>
    <path id="Back-595b40b65ba036ed117d0e2e" d="M809.56,358.38l-4.89-5.48a.67.67,0,0,1,0-.88l.88-1a.54.54,0,0,1,.76-.05l.05.05,6.22,6.87a.67.67,0,0,1,0,.88l-6.22,6.88a.54.54,0,0,1-.75.05l-.05-.05-.87-1a.67.67,0,0,1,0-.88Z" transform="translate(-350.41 -114.82)" fill="#939393"/>
    <path id="Back-595b40b65ba036ed117d0e2e-2" d="M363.94,358.38l4.89-5.48a.67.67,0,0,0,0-.88l-.87-1a.54.54,0,0,0-.76-.05l-.05.05-6.23,6.88a.67.67,0,0,0,0,.88l6.22,6.87a.53.53,0,0,0,.75.05l.05-.05.88-1a.67.67,0,0,0,0-.88Z" transform="translate(-350.41 -114.82)" fill="#939393"/>
    <circle id="Ellipse_11" data-name="Ellipse 11" cx="5.5" cy="5.5" r="5.5" transform="translate(456.35 4.06)" fill="#b87333"/>
    <circle id="Ellipse_15" data-name="Ellipse 15" cx="5.5" cy="5.5" r="5.5" transform="translate(456.35 220.06)" fill="#b87333"/>
	    <circle id="Ellipse_16" data-name="Ellipse 16" cx="5.5" cy="5.5" r="5.5" transform="translate(0 4.06)" fill="#b87333"/>
    <circle id="Ellipse_17" data-name="Ellipse 17" cx="5.5" cy="5.5" r="5.5" transform="translate(0 220.06)" fill="#b87333"/>
    <g id="Group_2414" data-name="Group 2414">
      <line id="Line_44" data-name="Line 44" x1="446" transform="translate(10.35 225.56)" fill="none" stroke="#b87333" stroke-width="2.5"/>
      <line id="Line_52" data-name="Line 52" x1="172" transform="translate(10.35 9.56)" fill="none" stroke="#b87333" stroke-width="2.5"/>
      <line id="Line_54" data-name="Line 54" x1="168" transform="translate(288.35 9.56)" fill="none" stroke="#b87333" stroke-width="2.5"/>
      <path id="Resistor_symbol_America" data-name="Resistor symbol America" d="M532.75,124.29h26.5l4.42-8.91,8.83,17.82,8.83-17.82,8.83,17.82L599,115.38l8.83,17.82,4.42-8.91h26.5" transform="translate(-350.41 -114.82)" fill="none" stroke="#b87333" stroke-linejoin="bevel" stroke-width="2.5"/>
    </g>
  </g>
</svg>
