<svg xmlns="http://www.w3.org/2000/svg" width="29" height="29" viewBox="0 0 29 29">
  <g id="portreflrction" transform="translate(12695 -4830)">
    <g id="Group_2996" data-name="Group 2996" transform="translate(-12695 4859) rotate(-90)">
      <path id="Path_2499" data-name="Path 2499" d="M29,1.677A1.754,1.754,0,0,0,27.188,0H1.813A1.754,1.754,0,0,0,0,1.677V27.323A1.754,1.754,0,0,0,1.813,29H27.188A1.754,1.754,0,0,0,29,27.323Z" transform="translate(0 0)" fill="#595959"/>
      <path id="Path_2498" data-name="Path 2498" d="M12.385,20.67h0L5.7,20.334l1.989-1.987L2.356,12.823l.006-.007h0L0,10.451,10.451,0l2.371,2.371L4.735,10.459l-.008-.007L2.364,12.815h0l.008.007,2.364-2.364,5.327,5.517,1.987-1.989.335,6.681Z" transform="translate(8.286 4.143)" fill="#303030"/>
      <path id="Path_2500" data-name="Path 2500" d="M29,1.677A1.754,1.754,0,0,0,27.188,0H1.813A1.754,1.754,0,0,0,0,1.677V27.323A1.754,1.754,0,0,0,1.813,29H27.188A1.754,1.754,0,0,0,29,27.323Z" transform="translate(0 0)" fill="#b87333"/>
    </g>
    <g id="Group_2998" data-name="Group 2998" transform="translate(-12692.238 4834.143)">
      <path id="Path_2501" data-name="Path 2501" d="M13.764,22.532,4.417,21.248,8.994,18.96,0,10.933,9.809,0h2.015L4.779,10.933l5.781,6.221,1.626-4.7,1.58,10.074Z" transform="translate(1.314 13.766) rotate(-90)" fill="#303030"/>
      <path id="Path_2505" data-name="Path 2505" d="M-12694.129,4869.917h14.959l3.248,4.818h-22.379Z" transform="translate(12698.301 -4854.885)" fill="#303030"/>
    </g>
  </g>
</svg>
