<svg xmlns="http://www.w3.org/2000/svg" width="48" height="48" viewBox="0 0 48 48">
  <g id="waveguide-icon" transform="translate(14720 4916)">
    <g id="Group_1286" data-name="Group 1286">
      <rect id="Rectangle_731" data-name="Rectangle 731" width="48" height="48" rx="5" transform="translate(-14720 -4916)" fill="silver"/>
    </g>
    <rect id="Rectangle_730" data-name="Rectangle 730" width="30" height="14" transform="translate(-14689 -4907) rotate(90)" fill="#37474f"/>
    <path id="Path_411" data-name="Path 411" d="M2,0A2,2,0,1,1,0,2,2,2,0,0,1,2,0Z" transform="translate(-14717.436 -4913.436)" fill="#37474f"/>
    <path id="Path_409" data-name="Path 409" d="M2,0A2,2,0,1,1,0,2,2,2,0,0,1,2,0Z" transform="translate(-14679.436 -4913.436)" fill="#37474f"/>
    <circle id="Ellipse_100" data-name="Ellipse 100" cx="2" cy="2" r="2" transform="translate(-14717.436 -4874.436)" fill="#37474f"/>
    <path id="Path_410" data-name="Path 410" d="M2,0A2,2,0,1,1,0,2,2,2,0,0,1,2,0Z" transform="translate(-14679.436 -4874.436)" fill="#37474f"/>
  </g>
</svg>
